1 0.3218
2 0.3007
3 0.3007
4 0.3027
Basic 0.2497
COMMITbase 0.4279
COMMITexp 0.3034
COMMITfilter 0.2946
COMMITlinks 0.3082
DFReeKLIM 0.4395
DFReeKLIM30 0.4401
DFReeKLIMDC 0.4395
DFReeKLIMRA 0.4476
EMAX 0.0224
FASILKOM01 0.4184
FASILKOM02 0.4211
FASILKOM03 0.4068
FASILKOM04 0.4122
FDUNLP 0.2367
FDUNLP2 0.2245
Google1GNO 0.3578
ICTNET11MBR1 0.2993
ICTNET11MBR2 0.2367
ICTNET11MBR3 0.3054
ICTNET11MBR4 0.283
IDEAACTQE 0.2605
IDEABASIC 0.2782
IDEABASICACT 0.2782
IDEABASICQE 0.2667
IRSIGoogle1G 0.3544
IRSIGoogle2G 0.3218
InL2c1 0.2701
KAUSTBase 0.3347
KAUSTExp 0.3224
KAUSTExpRrnk 0.3463
KAUSTRerank 0.3571
LJQO10 0.3136
LJQO5 0.3136
LMOP10 0.2354
LMOP5 0.1973
LThresh 0.2122
MONASH1NEW 0.1483
MONASH2NEW 0.1585
MorpheusRun1 0.115
Nestor 0.2218
NestorS 0.2184
PKUICST 0.4
PKUICST2 0.3925
PKUICST3 0.3952
PKUICST4 0.3993
PL2Bo1SDExt 0.066
PL2NoQENoDM 0.2782
PL2NoQeSd 0.2823
PL2NoQeSdExt 0.0633
PRISrun1 0.4537
PRISrun2 0.502
PRISrun3 0.4286
PRISrun4 0.3898
QCRIwTagOrg 0.3177
QCRIwoTagOrg 0.3177
RFD 0.2578
RMITAR 0.2211
RMITM 0.2721
RMITMR 0.2041
RMITMRR 0.3163
RTB 0.0361
Rocchio 0.2463
RunAll 0.2701
RunFut 0.2741
RunPure 0.281
SienaCL1B 0.3082
SienaCL31 0.3007
SienaCL342 0.2986
SienaCLbase 0.2939
UDMicroComb1 0.2585
UDMicroComb2 0.2952
UDMicroIDF 0.3027
UDMicroIDFD 0.2687
UIowaS1 0.2796
UIowaS2 0.2912
UIowaS3 0.2918
UIowaS4 0.2707
UTBase 0.1694
UTBaseRTF 0.0537
UTWngFuture 0.1054
UTWngFutureQ 0.166
WESTfilext 0.2095
WESTfilter 0.2184
WESTrelint 0.1605
WESTrlext 0.1605
Wise2ndRun 0.3639
WiseFifthRun 0.3578
WiseFouthRun 0.3156
WiseThirdRun 0.3639
YNDXTPC1 0.2027
YNDXTPC2 0.2156
balanceRun 0.2503
baseline 0.0776
baseline1 0.1952
baseline2 0.2925
baselineBM25 0.1231
basicWISTUD 0.2946
ciirRun1 0.3463
ciirRun2 0.3653
ciirRun3 0.3605
ciirRun4 0.3122
clarity1 0.4211
clarity2 0.4102
clarity3 0.415
clarity4 0.3871
cyfrun1 0.1748
cyfrun2 0.0898
dbpWISTUD 0.4
dutirLmFb 0.3374
dutirMixFb 0.3408
dutirMixSp 0.3184
dutirTfidfFb 0.3109
gus 0.2973
gust 0.3027
gustc 0.3027
gut 0.3218
hitWId 0.4381
hitWIt 0.4429
ikmRun1 0.1469
iritfd1 0.3531
iritfd2 0.349
isiFD 0.4361
isiFDL 0.4551
isiFDRM 0.4476
isiFDRML 0.4442
kanopeRun 0.0401
manualWISTUD 0.3946
melblt 0.2565
mulnewWISTUD 0.3156
myRun 0.3204
myrun2 0.3993
myrun3 0.383
nQCRIwTag 0.3177
nQCRIwoTag 0.3177
normal 0.3136
omarRun 0.2932
qHtagBaseRun 0.219
qRefLThresh 0.2041
refBalRun 0.2429
refRelRun 0.3299
relevanceRun 0.3517
ri 0.4265
rit 0.3034
rit3 0.2619
run1 0.3823
run1a 0.1347
run1fix 0.3986
run2 0.4068
run2a 0.1694
run3 0.2871
run3a 0.2034
run4 0.2707
run4a 0.1973
runNeMIS 0.1361
runNeMISext 0.1626
scurtuRun1 0.1714
sielrun1 0.1231
sielrun2 0.1741
sielrun3 0.1667
sielrun4 0.1701
simfoll 0.2952
simfollTP01 0.3075
sylesNoRes 0.3476
tfTP01 0.298
udelIndri 0.3306
udelLucene 0.0884
uicir1 0.2524
uicir2 0.2367
uiucsf 0.0109
uogTrLqea 0.202
uogTrLqeabd 0.1966
uogTrLqeabdd 0.1898
uogTrUB2 0.1939
waterlooa1 0.3701
waterlooa2 0.3605
waterlooa3 0.4095
waterlooa4 0.3755
ya3 0.219
ya4 0.2381
